// Written by SLADE3
namespace="zdoom";
thing//#0
{
x=0.000;
y=-224.000;
type=1;
angle=90;
coop=true;
dm=true;
single=true;
skill1=true;
skill2=true;
skill3=true;
skill4=true;
skill5=true;
renderstyle="";
}

thing//#1
{
x=-96.000;
y=128.000;
type=44;
angle=90;
coop=true;
dm=true;
single=true;
skill1=true;
skill2=true;
skill3=true;
skill4=true;
skill5=true;
renderstyle="";
}

thing//#2
{
x=96.000;
y=128.000;
type=44;
angle=90;
coop=true;
dm=true;
single=true;
skill1=true;
skill2=true;
skill3=true;
skill4=true;
skill5=true;
renderstyle="";
}

thing//#3
{
x=96.000;
y=-64.000;
type=44;
angle=90;
coop=true;
dm=true;
single=true;
skill1=true;
skill2=true;
skill3=true;
skill4=true;
skill5=true;
renderstyle="";
}

thing//#4
{
x=-96.000;
y=-64.000;
type=44;
angle=90;
coop=true;
dm=true;
single=true;
skill1=true;
skill2=true;
skill3=true;
skill4=true;
skill5=true;
renderstyle="";
}

thing//#5
{
x=0.000;
y=32.000;
type=9907;
angle=90;
coop=true;
dm=true;
single=true;
skill1=true;
skill2=true;
skill3=true;
skill4=true;
skill5=true;
renderstyle="";
special=243;
special=226;
arg0=1;
}

linedef//#0
{
v1=0;
v2=1;
sidefront=0;
id=0;
blocking=true;
}

linedef//#1
{
v1=1;
v2=2;
sidefront=1;
id=0;
blocking=true;
}

linedef//#2
{
v1=2;
v2=3;
sidefront=2;
id=0;
blocking=true;
}

linedef//#3
{
v1=3;
v2=0;
sidefront=3;
id=0;
blocking=true;
}

linedef//#4
{
v1=4;
v2=5;
sidefront=4;
sideback=5;
id=0;
twosided=true;
}

linedef//#5
{
v1=6;
v2=7;
sidefront=6;
sideback=7;
id=0;
twosided=true;
}

linedef//#6
{
v1=8;
v2=9;
sidefront=8;
sideback=9;
id=0;
twosided=true;
}

linedef//#7
{
v1=10;
v2=11;
sidefront=10;
sideback=11;
id=0;
twosided=true;
}

linedef//#8
{
v1=12;
v2=6;
sidefront=12;
sideback=13;
id=0;
twosided=true;
}

linedef//#9
{
v1=9;
v2=13;
sidefront=14;
sideback=15;
id=0;
twosided=true;
}

linedef//#10
{
v1=12;
v2=14;
sidefront=16;
sideback=17;
id=0;
twosided=true;
}

linedef//#11
{
v1=13;
v2=10;
sidefront=18;
sideback=19;
id=0;
twosided=true;
}

linedef//#12
{
v1=5;
v2=12;
sidefront=20;
sideback=21;
id=0;
twosided=true;
}

linedef//#13
{
v1=13;
v2=15;
sidefront=22;
sideback=23;
id=0;
twosided=true;
}

linedef//#14
{
v1=16;
v2=4;
sidefront=24;
sideback=25;
id=0;
twosided=true;
}

linedef//#15
{
v1=7;
v2=17;
sidefront=26;
sideback=27;
id=0;
twosided=true;
}

linedef//#16
{
v1=18;
v2=5;
sidefront=28;
sideback=29;
id=0;
twosided=true;
}

linedef//#17
{
v1=16;
v2=18;
sidefront=30;
sideback=31;
id=0;
twosided=true;
}

linedef//#18
{
v1=14;
v2=19;
sidefront=32;
sideback=33;
id=0;
twosided=true;
}

linedef//#19
{
v1=18;
v2=14;
sidefront=34;
sideback=35;
id=0;
twosided=true;
}

linedef//#20
{
v1=14;
v2=7;
sidefront=36;
sideback=37;
id=0;
twosided=true;
}

linedef//#21
{
v1=17;
v2=8;
sidefront=38;
sideback=39;
id=0;
twosided=true;
}

linedef//#22
{
v1=11;
v2=16;
sidefront=40;
sideback=41;
id=0;
twosided=true;
}

linedef//#23
{
v1=19;
v2=9;
sidefront=42;
sideback=43;
id=0;
twosided=true;
}

linedef//#24
{
v1=17;
v2=19;
sidefront=44;
sideback=45;
id=0;
twosided=true;
}

linedef//#25
{
v1=15;
v2=18;
sidefront=46;
sideback=47;
id=0;
twosided=true;
}

linedef//#26
{
v1=19;
v2=15;
sidefront=48;
sideback=49;
id=0;
twosided=true;
}

linedef//#27
{
v1=15;
v2=11;
sidefront=50;
sideback=51;
id=0;
twosided=true;
}

linedef//#28
{
v1=20;
v2=21;
sidefront=52;
sideback=53;
id=0;
twosided=true;
}

linedef//#29
{
v1=21;
v2=22;
sidefront=54;
sideback=55;
id=0;
twosided=true;
}

linedef//#30
{
v1=22;
v2=23;
sidefront=56;
sideback=57;
id=0;
twosided=true;
}

linedef//#31
{
v1=23;
v2=20;
sidefront=58;
sideback=59;
id=0;
twosided=true;
}

sidedef//#0
{
sector=0;
texturemiddle="MARBLE3";
}

sidedef//#1
{
sector=0;
texturemiddle="MARBLE3";
}

sidedef//#2
{
sector=0;
texturemiddle="MARBLE3";
}

sidedef//#3
{
sector=0;
texturemiddle="MARBLE3";
}

sidedef//#4
{
sector=1;
}

sidedef//#5
{
sector=0;
texturebottom="MARBGRAY";
offsetx=96;
}

sidedef//#6
{
sector=2;
}

sidedef//#7
{
sector=0;
texturebottom="MARBGRAY";
offsetx=96;
}

sidedef//#8
{
sector=3;
}

sidedef//#9
{
sector=0;
texturebottom="MARBGRAY";
offsetx=96;
}

sidedef//#10
{
sector=4;
}

sidedef//#11
{
sector=0;
texturebottom="MARBGRAY";
offsetx=96;
}

sidedef//#12
{
sector=2;
offsetx=96;
}

sidedef//#13
{
sector=0;
texturebottom="MARBGRAY";
}

sidedef//#14
{
sector=5;
offsetx=32;
}

sidedef//#15
{
sector=0;
offsetx=32;
}

sidedef//#16
{
sector=6;
texturebottom="MARBGRAY";
}

sidedef//#17
{
sector=2;
offsetx=96;
}

sidedef//#18
{
sector=4;
offsetx=96;
}

sidedef//#19
{
sector=0;
texturebottom="MARBGRAY";
}

sidedef//#20
{
sector=6;
offsetx=32;
}

sidedef//#21
{
sector=0;
offsetx=32;
}

sidedef//#22
{
sector=5;
texturebottom="MARBGRAY";
}

sidedef//#23
{
sector=4;
offsetx=96;
}

sidedef//#24
{
sector=1;
offsetx=96;
}

sidedef//#25
{
sector=0;
texturebottom="MARBGRAY";
}

sidedef//#26
{
sector=7;
offsetx=32;
}

sidedef//#27
{
sector=0;
offsetx=32;
}

sidedef//#28
{
sector=6;
texturebottom="MARBGRAY";
offsetx=96;
}

sidedef//#29
{
sector=1;
}

sidedef//#30
{
sector=8;
texturebottom="MARBGRAY";
}

sidedef//#31
{
sector=1;
}

sidedef//#32
{
sector=9;
offsetx=32;
}

sidedef//#33
{
sector=7;
texturebottom="MARBGRAY";
offsetx=32;
}

sidedef//#34
{
sector=9;
}

sidedef//#35
{
sector=6;
texturebottom="MARBGRAY";
}

sidedef//#36
{
sector=7;
texturebottom="MARBGRAY";
}

sidedef//#37
{
sector=2;
}

sidedef//#38
{
sector=3;
offsetx=96;
}

sidedef//#39
{
sector=0;
texturebottom="MARBGRAY";
}

sidedef//#40
{
sector=8;
offsetx=32;
}

sidedef//#41
{
sector=0;
offsetx=32;
}

sidedef//#42
{
sector=5;
texturebottom="MARBGRAY";
offsetx=96;
}

sidedef//#43
{
sector=3;
}

sidedef//#44
{
sector=7;
texturebottom="MARBGRAY";
}

sidedef//#45
{
sector=3;
}

sidedef//#46
{
sector=9;
offsetx=32;
}

sidedef//#47
{
sector=8;
texturebottom="MARBGRAY";
offsetx=32;
}

sidedef//#48
{
sector=9;
}

sidedef//#49
{
sector=5;
texturebottom="MARBGRAY";
}

sidedef//#50
{
sector=8;
texturebottom="MARBGRAY";
}

sidedef//#51
{
sector=4;
}

sidedef//#52
{
sector=10;
}

sidedef//#53
{
sector=9;
texturebottom="MARBGRAY";
}

sidedef//#54
{
sector=10;
}

sidedef//#55
{
sector=9;
texturebottom="MARBGRAY";
}

sidedef//#56
{
sector=10;
}

sidedef//#57
{
sector=9;
texturebottom="MARBGRAY";
}

sidedef//#58
{
sector=10;
}

sidedef//#59
{
sector=9;
texturebottom="MARBGRAY";
}

vertex//#0
{
x=-288.000;
y=-256.000;
}

vertex//#1
{
x=-288.000;
y=320.000;
}

vertex//#2
{
x=288.000;
y=320.000;
}

vertex//#3
{
x=288.000;
y=-256.000;
}

vertex//#4
{
x=-128.000;
y=-96.000;
}

vertex//#5
{
x=-128.000;
y=-32.000;
}

vertex//#6
{
x=-128.000;
y=160.000;
}

vertex//#7
{
x=-64.000;
y=160.000;
}

vertex//#8
{
x=128.000;
y=160.000;
}

vertex//#9
{
x=128.000;
y=96.000;
}

vertex//#10
{
x=128.000;
y=-96.000;
}

vertex//#11
{
x=64.000;
y=-96.000;
}

vertex//#12
{
x=-128.000;
y=96.000;
}

vertex//#13
{
x=128.000;
y=-32.000;
}

vertex//#14
{
x=-64.000;
y=96.000;
}

vertex//#15
{
x=64.000;
y=-32.000;
}

vertex//#16
{
x=-64.000;
y=-96.000;
}

vertex//#17
{
x=64.000;
y=160.000;
}

vertex//#18
{
x=-64.000;
y=-32.000;
}

vertex//#19
{
x=64.000;
y=96.000;
}

vertex//#20
{
x=-32.000;
y=0.000;
}

vertex//#21
{
x=-32.000;
y=64.000;
}

vertex//#22
{
x=32.000;
y=64.000;
}

vertex//#23
{
x=32.000;
y=0.000;
}

sector//#0
{
texturefloor="FWATER1";
textureceiling="DEM1_6";
heightceiling=128;
lightlevel=0;
}

sector//#1
{
texturefloor="MFLR8_3";
textureceiling="DEM1_6";
heightfloor=8;
heightceiling=128;
lightlevel=0;
}

sector//#2
{
texturefloor="MFLR8_3";
textureceiling="DEM1_6";
heightfloor=8;
heightceiling=128;
lightlevel=0;
}

sector//#3
{
texturefloor="MFLR8_3";
textureceiling="DEM1_6";
heightfloor=8;
heightceiling=128;
lightlevel=0;
}

sector//#4
{
texturefloor="MFLR8_3";
textureceiling="DEM1_6";
heightfloor=8;
heightceiling=128;
lightlevel=0;
}

sector//#5
{
texturefloor="FWATER1";
textureceiling="DEM1_6";
heightceiling=128;
lightlevel=0;
}

sector//#6
{
texturefloor="FWATER1";
textureceiling="DEM1_6";
heightceiling=128;
lightlevel=0;
}

sector//#7
{
texturefloor="FWATER1";
textureceiling="DEM1_6";
heightceiling=128;
lightlevel=0;
}

sector//#8
{
texturefloor="FWATER1";
textureceiling="DEM1_6";
heightceiling=128;
lightlevel=0;
}

sector//#9
{
texturefloor="DEM1_5";
textureceiling="DEM1_6";
heightfloor=16;
heightceiling=128;
lightlevel=0;
}

sector//#10
{
texturefloor="DEM1_5";
textureceiling="DEM1_6";
heightfloor=24;
heightceiling=128;
lightlevel=0;
}

